%YAML 1.1
%TAG !u! tag:unity3d.com,2011:
--- !u!1001 &2834606292441935889
PrefabInstance:
  m_ObjectHideFlags: 0
  serializedVersion: 2
  m_Modification:
    m_TransformParent: {fileID: 0}
    m_Modifications:
    - target: {fileID: 1617457417686472135, guid: d7b0c5936a35e514e86fe54b9f7ec02d,
        type: 3}
      propertyPath: m_Name
      value: Banana Variant_temp
      objectReference: {fileID: 0}
    - target: {fileID: 926960723202253564, guid: d7b0c5936a35e514e86fe54b9f7ec02d,
        type: 3}
      propertyPath: m_UseGravity
      value: 0
      objectReference: {fileID: 0}
    - target: {fileID: 1621265696940446363, guid: d7b0c5936a35e514e86fe54b9f7ec02d,
        type: 3}
      propertyPath: m_LocalPosition.x
      value: 0
      objectReference: {fileID: 0}
    - target: {fileID: 1621265696940446363, guid: d7b0c5936a35e514e86fe54b9f7ec02d,
        type: 3}
      propertyPath: m_LocalPosition.y
      value: 0
      objectReference: {fileID: 0}
    - target: {fileID: 1621265696940446363, guid: d7b0c5936a35e514e86fe54b9f7ec02d,
        type: 3}
      propertyPath: m_LocalPosition.z
      value: 0
      objectReference: {fileID: 0}
    - target: {fileID: 1621265696940446363, guid: d7b0c5936a35e514e86fe54b9f7ec02d,
        type: 3}
      propertyPath: m_LocalRotation.x
      value: 0
      objectReference: {fileID: 0}
    - target: {fileID: 1621265696940446363, guid: d7b0c5936a35e514e86fe54b9f7ec02d,
        type: 3}
      propertyPath: m_LocalRotation.y
      value: 0
      objectReference: {fileID: 0}
    - target: {fileID: 1621265696940446363, guid: d7b0c5936a35e514e86fe54b9f7ec02d,
        type: 3}
      propertyPath: m_LocalRotation.z
      value: 0
      objectReference: {fileID: 0}
    - target: {fileID: 1621265696940446363, guid: d7b0c5936a35e514e86fe54b9f7ec02d,
        type: 3}
      propertyPath: m_LocalRotation.w
      value: 1
      objectReference: {fileID: 0}
    - target: {fileID: 1621265696940446363, guid: d7b0c5936a35e514e86fe54b9f7ec02d,
        type: 3}
      propertyPath: m_RootOrder
      value: 0
      objectReference: {fileID: 0}
    - target: {fileID: 1621265696940446363, guid: d7b0c5936a35e514e86fe54b9f7ec02d,
        type: 3}
      propertyPath: m_LocalEulerAnglesHint.x
      value: 0
      objectReference: {fileID: 0}
    - target: {fileID: 1621265696940446363, guid: d7b0c5936a35e514e86fe54b9f7ec02d,
        type: 3}
      propertyPath: m_LocalEulerAnglesHint.y
      value: 0
      objectReference: {fileID: 0}
    - target: {fileID: 1621265696940446363, guid: d7b0c5936a35e514e86fe54b9f7ec02d,
        type: 3}
      propertyPath: m_LocalEulerAnglesHint.z
      value: 0
      objectReference: {fileID: 0}
    - target: {fileID: 1586652611828113197, guid: d7b0c5936a35e514e86fe54b9f7ec02d,
        type: 3}
      propertyPath: m_Mesh
      value: 
      objectReference: {fileID: 4300000, guid: 6d05be1b78e41a948b8d50bee67bce65, type: 3}
    - target: {fileID: 6296960327806721334, guid: d7b0c5936a35e514e86fe54b9f7ec02d,
        type: 3}
      propertyPath: m_Mesh
      value: 
      objectReference: {fileID: 4300000, guid: 6d05be1b78e41a948b8d50bee67bce65, type: 3}
    - target: {fileID: 7888652608187895570, guid: d7b0c5936a35e514e86fe54b9f7ec02d,
        type: 3}
      propertyPath: m_Enabled
      value: 0
      objectReference: {fileID: 0}
    m_RemovedComponents: []
  m_SourcePrefab: {fileID: 100100000, guid: d7b0c5936a35e514e86fe54b9f7ec02d, type: 3}
