%YAML 1.1
%TAG !u! tag:unity3d.com,2011:
--- !u!1001 &1858591430659040217
PrefabInstance:
  m_ObjectHideFlags: 0
  serializedVersion: 2
  m_Modification:
    m_TransformParent: {fileID: 0}
    m_Modifications:
    - target: {fileID: 1617457417686472135, guid: d7b0c5936a35e514e86fe54b9f7ec02d,
        type: 3}
      propertyPath: m_Name
      value: Pizza Variant
      objectReference: {fileID: 0}
    - target: {fileID: 1621265696940446363, guid: d7b0c5936a35e514e86fe54b9f7ec02d,
        type: 3}
      propertyPath: m_LocalPosition.x
      value: 0
      objectReference: {fileID: 0}
    - target: {fileID: 1621265696940446363, guid: d7b0c5936a35e514e86fe54b9f7ec02d,
        type: 3}
      propertyPath: m_LocalPosition.y
      value: 0
      objectReference: {fileID: 0}
    - target: {fileID: 1621265696940446363, guid: d7b0c5936a35e514e86fe54b9f7ec02d,
        type: 3}
      propertyPath: m_LocalPosition.z
      value: 0
      objectReference: {fileID: 0}
    - target: {fileID: 1621265696940446363, guid: d7b0c5936a35e514e86fe54b9f7ec02d,
        type: 3}
      propertyPath: m_LocalRotation.x
      value: 0
      objectReference: {fileID: 0}
    - target: {fileID: 1621265696940446363, guid: d7b0c5936a35e514e86fe54b9f7ec02d,
        type: 3}
      propertyPath: m_LocalRotation.y
      value: 0
      objectReference: {fileID: 0}
    - target: {fileID: 1621265696940446363, guid: d7b0c5936a35e514e86fe54b9f7ec02d,
        type: 3}
      propertyPath: m_LocalRotation.z
      value: 0
      objectReference: {fileID: 0}
    - target: {fileID: 1621265696940446363, guid: d7b0c5936a35e514e86fe54b9f7ec02d,
        type: 3}
      propertyPath: m_LocalRotation.w
      value: 1
      objectReference: {fileID: 0}
    - target: {fileID: 1621265696940446363, guid: d7b0c5936a35e514e86fe54b9f7ec02d,
        type: 3}
      propertyPath: m_RootOrder
      value: 0
      objectReference: {fileID: 0}
    - target: {fileID: 1621265696940446363, guid: d7b0c5936a35e514e86fe54b9f7ec02d,
        type: 3}
      propertyPath: m_LocalEulerAnglesHint.x
      value: 0
      objectReference: {fileID: 0}
    - target: {fileID: 1621265696940446363, guid: d7b0c5936a35e514e86fe54b9f7ec02d,
        type: 3}
      propertyPath: m_LocalEulerAnglesHint.y
      value: 0
      objectReference: {fileID: 0}
    - target: {fileID: 1621265696940446363, guid: d7b0c5936a35e514e86fe54b9f7ec02d,
        type: 3}
      propertyPath: m_LocalEulerAnglesHint.z
      value: 0
      objectReference: {fileID: 0}
    - target: {fileID: 1621265696940446363, guid: d7b0c5936a35e514e86fe54b9f7ec02d,
        type: 3}
      propertyPath: m_LocalScale.x
      value: 15
      objectReference: {fileID: 0}
    - target: {fileID: 1621265696940446363, guid: d7b0c5936a35e514e86fe54b9f7ec02d,
        type: 3}
      propertyPath: m_LocalScale.y
      value: 15
      objectReference: {fileID: 0}
    - target: {fileID: 1621265696940446363, guid: d7b0c5936a35e514e86fe54b9f7ec02d,
        type: 3}
      propertyPath: m_LocalScale.z
      value: 15
      objectReference: {fileID: 0}
    m_RemovedComponents: []
  m_SourcePrefab: {fileID: 100100000, guid: d7b0c5936a35e514e86fe54b9f7ec02d, type: 3}
